{
    "pagination": {
        "total": 100,
        "per_page": 10,
        "current_page": 1,
        "last_page": 10
    },
    "data" : [
        {
            "id": 1,
            "name": "Nama Pertama",
            "price": 10000,
            "stock": 100,
            "category": {
                "id": 1,
                "name": "Mahasiswa"
            }
        },
        {
            "id": 2,
            "name": "Nama Kedua",
            "price": 50000,
            "stock": 50,
            "category": {
                "id": 2,
                "name": "Bukan Mahasiswa"
            }
        }
    ]
}